<?xml version="1.0" encoding="UTF-8" standalone="no"?>
<svg
   xmlns:dc="http://purl.org/dc/elements/1.1/"
   xmlns:cc="http://creativecommons.org/ns#"
   xmlns:rdf="http://www.w3.org/1999/02/22-rdf-syntax-ns#"
   xmlns:svg="http://www.w3.org/2000/svg"
   xmlns="http://www.w3.org/2000/svg"
   xmlns:sodipodi="http://sodipodi.sourceforge.net/DTD/sodipodi-0.dtd"
   xmlns:inkscape="http://www.inkscape.org/namespaces/inkscape"
   version="1.1"
   id="svg2"
   xml:space="preserve"
   width="377.94666"
   height="377.94666"
   viewBox="0 0 377.94666 377.94666"
   sodipodi:docname="logo-clisson.svg"
   inkscape:version="1.0.2 (e86c870879, 2021-01-15)"><metadata
     id="metadata8"><rdf:RDF><cc:Work
         rdf:about=""><dc:format>image/svg+xml</dc:format><dc:type
           rdf:resource="http://purl.org/dc/dcmitype/StillImage" /><dc:title></dc:title></cc:Work></rdf:RDF></metadata><defs
     id="defs6"><clipPath
       clipPathUnits="userSpaceOnUse"
       id="clipPath22"><path
         d="M 0,283.46 H 283.46 V 0 H 0 Z"
         id="path20" /></clipPath><linearGradient
       x1="0"
       y1="0"
       x2="1"
       y2="0"
       gradientUnits="userSpaceOnUse"
       gradientTransform="matrix(-46.24041,46.24041,46.24041,46.24041,163.21365,153.94945)"
       spreadMethod="pad"
       id="linearGradient102"><stop
         style="stop-opacity:1;stop-color:#ffffff"
         offset="0"
         id="stop84" /><stop
         style="stop-opacity:1;stop-color:#4d4d4c"
         offset="0.168498"
         id="stop86" /><stop
         style="stop-opacity:1;stop-color:#9d9c9c"
         offset="0.263736"
         id="stop88" /><stop
         style="stop-opacity:1;stop-color:#a9a9a9"
         offset="0.395604"
         id="stop90" /><stop
         style="stop-opacity:1;stop-color:#858584"
         offset="0.542125"
         id="stop92" /><stop
         style="stop-opacity:1;stop-color:#818180"
         offset="0.626374"
         id="stop94" /><stop
         style="stop-opacity:1;stop-color:#f0f0f0"
         offset="0.717949"
         id="stop96" /><stop
         style="stop-opacity:1;stop-color:#ffffff"
         offset="0.791209"
         id="stop98" /><stop
         style="stop-opacity:1;stop-color:#424241"
         offset="1"
         id="stop100" /></linearGradient><linearGradient
       x1="0"
       y1="0"
       x2="1"
       y2="0"
       gradientUnits="userSpaceOnUse"
       gradientTransform="matrix(-46.24041,46.24041,46.24041,46.24041,163.21365,153.94945)"
       spreadMethod="pad"
       id="linearGradient136"><stop
         style="stop-opacity:1;stop-color:#ffffff"
         offset="0"
         id="stop118" /><stop
         style="stop-opacity:1;stop-color:#4d4d4c"
         offset="0.168498"
         id="stop120" /><stop
         style="stop-opacity:1;stop-color:#9d9c9c"
         offset="0.263736"
         id="stop122" /><stop
         style="stop-opacity:1;stop-color:#a9a9a9"
         offset="0.395604"
         id="stop124" /><stop
         style="stop-opacity:1;stop-color:#858584"
         offset="0.542125"
         id="stop126" /><stop
         style="stop-opacity:1;stop-color:#818180"
         offset="0.626374"
         id="stop128" /><stop
         style="stop-opacity:1;stop-color:#f0f0f0"
         offset="0.717949"
         id="stop130" /><stop
         style="stop-opacity:1;stop-color:#ffffff"
         offset="0.791209"
         id="stop132" /><stop
         style="stop-opacity:1;stop-color:#424241"
         offset="1"
         id="stop134" /></linearGradient><clipPath
       clipPathUnits="userSpaceOnUse"
       id="clipPath146"><path
         d="M 0,283.46 H 283.46 V 0 H 0 Z"
         id="path144" /></clipPath><clipPath
       clipPathUnits="userSpaceOnUse"
       id="clipPath154"><path
         d="m 107.412,209.767 h 61.41 v -65.379 h -61.41 z"
         id="path152" /></clipPath><linearGradient
       x1="0"
       y1="0"
       x2="1"
       y2="0"
       gradientUnits="userSpaceOnUse"
       gradientTransform="matrix(-46.24041,46.24041,46.24041,46.24041,163.21365,153.94945)"
       spreadMethod="pad"
       id="linearGradient178"><stop
         style="stop-opacity:1;stop-color:#ffffff"
         offset="0"
         id="stop160" /><stop
         style="stop-opacity:1;stop-color:#4d4d4c"
         offset="0.168498"
         id="stop162" /><stop
         style="stop-opacity:1;stop-color:#9d9c9c"
         offset="0.263736"
         id="stop164" /><stop
         style="stop-opacity:1;stop-color:#a9a9a9"
         offset="0.395604"
         id="stop166" /><stop
         style="stop-opacity:1;stop-color:#858584"
         offset="0.542125"
         id="stop168" /><stop
         style="stop-opacity:1;stop-color:#818180"
         offset="0.626374"
         id="stop170" /><stop
         style="stop-opacity:1;stop-color:#f0f0f0"
         offset="0.717949"
         id="stop172" /><stop
         style="stop-opacity:1;stop-color:#ffffff"
         offset="0.791209"
         id="stop174" /><stop
         style="stop-opacity:1;stop-color:#424241"
         offset="1"
         id="stop176" /></linearGradient><linearGradient
       x1="0"
       y1="0"
       x2="1"
       y2="0"
       gradientUnits="userSpaceOnUse"
       gradientTransform="matrix(-5.7212625,5.7212625,5.7212625,5.7212625,147.40248,169.88058)"
       spreadMethod="pad"
       id="linearGradient224"><stop
         style="stop-opacity:1;stop-color:#ffffff"
         offset="0"
         id="stop206" /><stop
         style="stop-opacity:1;stop-color:#4d4d4c"
         offset="0.168498"
         id="stop208" /><stop
         style="stop-opacity:1;stop-color:#9d9c9c"
         offset="0.263736"
         id="stop210" /><stop
         style="stop-opacity:1;stop-color:#a9a9a9"
         offset="0.395604"
         id="stop212" /><stop
         style="stop-opacity:1;stop-color:#858584"
         offset="0.542125"
         id="stop214" /><stop
         style="stop-opacity:1;stop-color:#818180"
         offset="0.626374"
         id="stop216" /><stop
         style="stop-opacity:1;stop-color:#f0f0f0"
         offset="0.717949"
         id="stop218" /><stop
         style="stop-opacity:1;stop-color:#ffffff"
         offset="0.791209"
         id="stop220" /><stop
         style="stop-opacity:1;stop-color:#424241"
         offset="1"
         id="stop222" /></linearGradient><linearGradient
       x1="0"
       y1="0"
       x2="1"
       y2="0"
       gradientUnits="userSpaceOnUse"
       gradientTransform="matrix(-5.7212625,5.7212625,5.7212625,5.7212625,157.31902,169.88058)"
       spreadMethod="pad"
       id="linearGradient258"><stop
         style="stop-opacity:1;stop-color:#ffffff"
         offset="0"
         id="stop240" /><stop
         style="stop-opacity:1;stop-color:#4d4d4c"
         offset="0.168498"
         id="stop242" /><stop
         style="stop-opacity:1;stop-color:#9d9c9c"
         offset="0.263736"
         id="stop244" /><stop
         style="stop-opacity:1;stop-color:#a9a9a9"
         offset="0.395604"
         id="stop246" /><stop
         style="stop-opacity:1;stop-color:#858584"
         offset="0.542125"
         id="stop248" /><stop
         style="stop-opacity:1;stop-color:#818180"
         offset="0.626374"
         id="stop250" /><stop
         style="stop-opacity:1;stop-color:#f0f0f0"
         offset="0.717949"
         id="stop252" /><stop
         style="stop-opacity:1;stop-color:#ffffff"
         offset="0.791209"
         id="stop254" /><stop
         style="stop-opacity:1;stop-color:#424241"
         offset="1"
         id="stop256" /></linearGradient><linearGradient
       x1="0"
       y1="0"
       x2="1"
       y2="0"
       gradientUnits="userSpaceOnUse"
       gradientTransform="matrix(-5.7212625,5.7212625,5.7212625,5.7212625,167.23555,169.88058)"
       spreadMethod="pad"
       id="linearGradient292"><stop
         style="stop-opacity:1;stop-color:#ffffff"
         offset="0"
         id="stop274" /><stop
         style="stop-opacity:1;stop-color:#4d4d4c"
         offset="0.168498"
         id="stop276" /><stop
         style="stop-opacity:1;stop-color:#9d9c9c"
         offset="0.263736"
         id="stop278" /><stop
         style="stop-opacity:1;stop-color:#a9a9a9"
         offset="0.395604"
         id="stop280" /><stop
         style="stop-opacity:1;stop-color:#858584"
         offset="0.542125"
         id="stop282" /><stop
         style="stop-opacity:1;stop-color:#818180"
         offset="0.626374"
         id="stop284" /><stop
         style="stop-opacity:1;stop-color:#f0f0f0"
         offset="0.717949"
         id="stop286" /><stop
         style="stop-opacity:1;stop-color:#ffffff"
         offset="0.791209"
         id="stop288" /><stop
         style="stop-opacity:1;stop-color:#424241"
         offset="1"
         id="stop290" /></linearGradient></defs><sodipodi:namedview
     pagecolor="#ffffff"
     bordercolor="#666666"
     borderopacity="1"
     objecttolerance="10"
     gridtolerance="10"
     guidetolerance="10"
     inkscape:pageopacity="0"
     inkscape:pageshadow="2"
     inkscape:window-width="960"
     inkscape:window-height="480"
     id="namedview4"
     showgrid="false"
     inkscape:zoom="1.9235519"
     inkscape:cx="188.97333"
     inkscape:cy="188.97333"
     inkscape:window-x="0"
     inkscape:window-y="27"
     inkscape:window-maximized="0"
     inkscape:current-layer="g10" /><g
     id="g10"
     inkscape:groupmode="layer"
     inkscape:label="logo groupe clisson quadri"
     transform="matrix(1.3333333,0,0,-1.3333333,0,377.94667)"><path
       d="M 183.916,66.634 H 94.482 V 222.56 h 89.434 z"
       style="fill:#193859;fill-opacity:1;fill-rule:nonzero;stroke:none"
       id="path12" /><path
       d="m 106.367,92.977 h 65.383 v 0.855 h -65.383 z"
       style="fill:#ffffff;fill-opacity:1;fill-rule:nonzero;stroke:none"
       id="path14" /><g
       id="g16"><g
         id="g18"
         clip-path="url(#clipPath22)"><g
           id="g24"
           transform="translate(115.5669,122.4639)"><path
             d="m 0,0 v -0.215 c 0,-0.172 -0.037,-0.4 -0.11,-0.686 -0.074,-0.287 -0.267,-0.574 -0.58,-0.86 -0.313,-0.286 -0.782,-0.533 -1.407,-0.74 -0.625,-0.207 -1.489,-0.312 -2.593,-0.312 -1.103,0 -1.968,0.105 -2.593,0.312 -0.626,0.207 -1.094,0.454 -1.407,0.74 -0.313,0.286 -0.506,0.576 -0.58,0.87 -0.073,0.293 -0.11,0.519 -0.11,0.676 v 0.537 9.618 0.559 c 0,0.157 0.037,0.383 0.11,0.677 0.074,0.293 0.267,0.583 0.58,0.869 0.313,0.286 0.781,0.533 1.407,0.741 0.625,0.207 1.49,0.311 2.593,0.311 1.104,0 1.968,-0.104 2.593,-0.311 0.625,-0.208 1.094,-0.455 1.407,-0.741 0.313,-0.286 0.506,-0.576 0.58,-0.869 C -0.037,10.882 0,10.656 0,10.499 V 9.94 h -2.345 v 0.237 c 0,0.129 -0.028,0.268 -0.083,0.419 -0.055,0.15 -0.17,0.29 -0.344,0.419 -0.176,0.129 -0.419,0.239 -0.732,0.333 -0.312,0.092 -0.736,0.138 -1.269,0.138 -0.497,0 -0.896,-0.046 -1.2,-0.138 -0.303,-0.094 -0.538,-0.212 -0.703,-0.355 -0.166,-0.143 -0.272,-0.29 -0.318,-0.44 -0.046,-0.151 -0.068,-0.29 -0.068,-0.419 V 9.94 0.322 0.129 c 0,-0.129 0.022,-0.269 0.068,-0.419 0.046,-0.15 0.152,-0.293 0.318,-0.429 0.165,-0.136 0.4,-0.251 0.703,-0.343 0.304,-0.094 0.703,-0.14 1.2,-0.14 0.533,0 0.957,0.046 1.269,0.14 0.313,0.092 0.556,0.204 0.732,0.333 0.174,0.128 0.289,0.268 0.344,0.417 0.055,0.151 0.083,0.284 0.083,0.398 v 0.236 1.095 1.868 c 0,0.243 -0.019,0.441 -0.055,0.591 C -2.438,4.025 -2.534,4.13 -2.69,4.187 -2.846,4.244 -3.081,4.251 -3.394,4.208 -3.706,4.165 -4.138,4.072 -4.69,3.93 v 1.802 c 0.239,0.073 0.473,0.136 0.704,0.194 0.229,0.057 0.445,0.114 0.648,0.172 0.441,0.114 0.919,0.129 1.434,0.043 0.515,-0.086 0.938,-0.265 1.269,-0.537 0.166,-0.128 0.29,-0.257 0.373,-0.386 C -0.179,5.089 -0.115,4.949 -0.069,4.799 -0.023,4.648 0,4.473 0,4.272 V 3.586 2.255 Z"
             style="fill:#ffffff;fill-opacity:1;fill-rule:nonzero;stroke:none"
             id="path26" /></g><g
           id="g28"
           transform="translate(122.9878,131.1592)"><path
             d="M 0,0 C 0.312,0 0.583,0.004 0.814,0.011 1.043,0.019 1.287,0.008 1.545,-0.021 L 1.021,-1.589 C 0.8,-1.589 0.616,-1.592 0.469,-1.6 0.322,-1.606 0.147,-1.61 -0.055,-1.61 c -0.497,0 -0.897,-0.05 -1.2,-0.15 -0.304,-0.1 -0.538,-0.219 -0.704,-0.354 -0.166,-0.137 -0.271,-0.28 -0.317,-0.43 -0.046,-0.15 -0.069,-0.29 -0.069,-0.419 v -0.193 -8.201 H -4.69 v 8.265 0.494 c 0,0.158 0.037,0.383 0.11,0.677 0.074,0.293 0.267,0.583 0.58,0.869 0.312,0.286 0.781,0.533 1.407,0.741 C -1.968,-0.104 -1.104,0 0,0"
             style="fill:#ffffff;fill-opacity:1;fill-rule:nonzero;stroke:none"
             id="path30" /></g><g
           id="g32"
           transform="translate(133.2227,122.7862)"><path
             d="m 0,0 v 5.238 0.237 c 0,0.129 -0.027,0.268 -0.083,0.419 -0.055,0.15 -0.17,0.29 -0.344,0.418 -0.176,0.129 -0.419,0.24 -0.732,0.333 -0.312,0.093 -0.736,0.139 -1.269,0.139 -0.496,0 -0.896,-0.046 -1.199,-0.139 C -3.931,6.552 -4.166,6.437 -4.331,6.302 -4.497,6.165 -4.603,6.019 -4.648,5.861 -4.694,5.704 -4.717,5.567 -4.717,5.453 V 5.238 0 -0.215 c 0,-0.114 0.023,-0.25 0.069,-0.408 0.045,-0.157 0.151,-0.304 0.317,-0.439 0.165,-0.137 0.4,-0.251 0.704,-0.344 0.303,-0.094 0.703,-0.14 1.199,-0.14 0.533,0 0.957,0.046 1.269,0.14 0.313,0.093 0.556,0.204 0.732,0.333 0.174,0.129 0.289,0.268 0.344,0.418 0.056,0.15 0.083,0.29 0.083,0.419 z m 2.345,-0.215 v -0.344 c 0,-0.171 -0.037,-0.4 -0.11,-0.686 C 2.161,-1.532 1.968,-1.818 1.655,-2.104 1.342,-2.391 0.874,-2.638 0.249,-2.845 c -0.626,-0.207 -1.49,-0.311 -2.594,-0.311 -1.103,0 -1.968,0.104 -2.593,0.311 -0.625,0.207 -1.094,0.454 -1.407,0.741 -0.313,0.286 -0.506,0.576 -0.579,0.87 -0.074,0.293 -0.111,0.518 -0.111,0.675 v 0.237 6.119 c 0,0.157 0.037,0.383 0.111,0.677 0.073,0.293 0.266,0.583 0.579,0.869 0.313,0.286 0.782,0.533 1.407,0.741 0.625,0.207 1.49,0.311 2.593,0.311 1.104,0 1.968,-0.104 2.594,-0.311 C 0.874,7.876 1.342,7.629 1.655,7.343 1.968,7.057 2.161,6.771 2.235,6.484 2.308,6.197 2.345,5.969 2.345,5.797 Z"
             style="fill:#ffffff;fill-opacity:1;fill-rule:nonzero;stroke:none"
             id="path34" /></g><g
           id="g36"
           transform="translate(147.6514,122.6358)"><path
             d="m 0,0 v -0.387 c 0,-0.172 -0.037,-0.4 -0.11,-0.686 -0.075,-0.287 -0.267,-0.573 -0.579,-0.86 -0.314,-0.286 -0.783,-0.533 -1.408,-0.74 -0.626,-0.207 -1.49,-0.311 -2.593,-0.311 -1.104,0 -1.969,0.104 -2.594,0.311 -0.625,0.207 -1.094,0.454 -1.407,0.74 -0.312,0.287 -0.506,0.577 -0.579,0.871 -0.074,0.292 -0.11,0.518 -0.11,0.675 v 0.237 8.545 h 2.317 V 0.172 h 0.027 v -0.215 c 0,-0.114 0.023,-0.25 0.07,-0.408 0.045,-0.157 0.147,-0.304 0.303,-0.44 0.156,-0.136 0.386,-0.251 0.69,-0.343 0.303,-0.094 0.712,-0.14 1.227,-0.14 0.534,0 0.957,0.046 1.269,0.14 0.313,0.092 0.552,0.204 0.718,0.333 0.165,0.129 0.276,0.268 0.331,0.418 0.055,0.15 0.083,0.29 0.083,0.419 v 0.236 h 0.028 V 8.395 H 0 Z"
             style="fill:#ffffff;fill-opacity:1;fill-rule:nonzero;stroke:none"
             id="path38" /></g><g
           id="g40"
           transform="translate(157.417,128.1749)"><path
             d="m 0,0 c -0.019,0.187 -0.069,0.365 -0.151,0.537 -0.083,0.172 -0.212,0.322 -0.387,0.451 -0.175,0.129 -0.414,0.229 -0.717,0.3 -0.304,0.072 -0.677,0.108 -1.118,0.108 -0.46,0 -0.841,-0.04 -1.145,-0.119 C -3.821,1.199 -4.061,1.096 -4.234,0.967 -4.41,0.838 -4.534,0.698 -4.607,0.548 -4.681,0.397 -4.718,0.243 -4.718,0.086 v -4.552 -0.107 -2.662 c 0.037,0.157 0.124,0.271 0.263,0.343 0.138,0.072 0.28,0.121 0.427,0.151 0.295,0.071 0.597,0.153 0.911,0.247 0.312,0.093 0.606,0.175 0.883,0.247 0.331,0.086 0.643,0.171 0.937,0.257 0.239,0.072 0.46,0.172 0.662,0.301 0.166,0.114 0.313,0.26 0.442,0.44 C -0.064,-5.07 0,-4.845 0,-4.573 v 0.107 z m 2.317,-4.466 v -0.493 c 0,-0.544 -0.174,-1.038 -0.524,-1.481 -0.35,-0.445 -0.864,-0.759 -1.545,-0.946 -0.331,-0.086 -0.708,-0.185 -1.131,-0.3 -0.423,-0.115 -0.832,-0.225 -1.227,-0.333 -0.396,-0.107 -0.741,-0.204 -1.036,-0.29 -0.293,-0.086 -0.477,-0.135 -0.551,-0.15 -0.074,-0.028 -0.165,-0.067 -0.276,-0.118 -0.11,-0.05 -0.22,-0.125 -0.331,-0.226 -0.11,-0.099 -0.207,-0.215 -0.29,-0.343 -0.082,-0.128 -0.124,-0.279 -0.124,-0.451 v -0.386 -2.748 H -7.062 V 0.43 c 0.018,0.73 0.4,1.341 1.144,1.836 0.745,0.493 1.927,0.74 3.545,0.74 0.828,0 1.536,-0.068 2.125,-0.204 C 0.34,2.666 0.827,2.48 1.214,2.244 1.6,2.008 1.88,1.732 2.056,1.417 2.229,1.103 2.317,0.766 2.317,0.408 v -0.515 z"
             style="fill:#ffffff;fill-opacity:1;fill-rule:nonzero;stroke:none"
             id="path42" /></g><g
           id="g44"
           transform="translate(169.5,128.0459)"><path
             d="m 0,0 v 0.193 c 0,0.129 -0.023,0.269 -0.069,0.419 -0.046,0.151 -0.152,0.293 -0.318,0.43 -0.165,0.136 -0.399,0.25 -0.703,0.343 -0.304,0.094 -0.703,0.139 -1.2,0.139 -0.515,0 -0.934,-0.045 -1.255,-0.139 C -3.867,1.292 -4.115,1.182 -4.29,1.053 -4.465,0.924 -4.58,0.784 -4.635,0.634 -4.69,0.483 -4.718,0.351 -4.718,0.236 V 0 -0.021 -0.192 -1.996 c 0.037,0.129 0.12,0.232 0.248,0.311 0.129,0.079 0.277,0.139 0.442,0.182 0.166,0.043 0.331,0.072 0.497,0.086 0.165,0.015 0.294,0.021 0.385,0.021 h 1.574 c 0.423,0 0.79,0.119 1.103,0.355 C -0.156,-0.805 0,-0.522 0,-0.192 v 0.171 z m -2.345,3.135 c 1.104,0 1.968,-0.104 2.593,-0.311 C 0.873,2.616 1.342,2.369 1.655,2.083 1.968,1.797 2.161,1.507 2.234,1.214 2.308,0.92 2.345,0.694 2.345,0.537 V 0 -0.021 -0.493 C 2.345,-0.737 2.285,-1.009 2.166,-1.31 2.046,-1.609 1.766,-1.932 1.324,-2.275 1.121,-2.447 0.892,-2.576 0.635,-2.662 0.377,-2.748 0.146,-2.813 -0.056,-2.855 -0.295,-2.912 -0.543,-2.941 -0.8,-2.941 h -2.096 c -0.479,0 -0.902,-0.136 -1.27,-0.408 -0.368,-0.272 -0.552,-0.608 -0.552,-1.009 v -0.966 c 0,-0.344 0.083,-0.615 0.248,-0.816 0.074,-0.1 0.157,-0.186 0.249,-0.257 0.092,-0.073 0.23,-0.137 0.413,-0.194 0.148,-0.057 0.336,-0.107 0.567,-0.15 0.229,-0.043 0.528,-0.065 0.896,-0.065 0.478,0 0.855,0.039 1.131,0.119 0.276,0.078 0.469,0.146 0.579,0.204 0.239,0.142 0.405,0.314 0.497,0.514 C -0.046,-5.768 0,-5.554 0,-5.324 H 2.345 V -5.84 C 2.345,-6.226 2.239,-6.584 2.027,-6.913 1.816,-7.242 1.489,-7.528 1.048,-7.771 0.735,-7.943 0.304,-8.094 -0.248,-8.223 -0.8,-8.352 -1.499,-8.416 -2.345,-8.416 c -0.626,0 -1.168,0.04 -1.628,0.118 -0.46,0.078 -0.86,0.179 -1.2,0.301 -0.341,0.121 -0.621,0.261 -0.842,0.419 -0.22,0.157 -0.404,0.314 -0.551,0.472 -0.331,0.372 -0.488,0.801 -0.469,1.288 v 0.494 0.966 4.337 V 0 0.537 c 0,0.172 0.037,0.4 0.11,0.688 0.073,0.286 0.267,0.572 0.579,0.858 0.314,0.286 0.783,0.533 1.408,0.741 0.625,0.207 1.49,0.311 2.593,0.311"
             style="fill:#ffffff;fill-opacity:1;fill-rule:nonzero;stroke:none"
             id="path46" /></g><g
           id="g48"
           transform="translate(113.1606,111.5752)"><path
             d="m 0,0 v 0.236 c 0,0.13 -0.026,0.27 -0.08,0.42 -0.052,0.151 -0.162,0.291 -0.329,0.42 -0.168,0.129 -0.401,0.24 -0.7,0.334 -0.299,0.093 -0.704,0.14 -1.214,0.14 -0.475,0 -0.858,-0.047 -1.149,-0.14 C -3.762,1.316 -3.986,1.198 -4.145,1.055 -4.303,0.911 -4.405,0.764 -4.448,0.613 -4.493,0.463 -4.514,0.323 -4.514,0.193 V 0 -9.643 -9.837 c 0,-0.129 0.021,-0.268 0.066,-0.42 0.043,-0.15 0.145,-0.294 0.303,-0.43 0.159,-0.136 0.383,-0.251 0.673,-0.344 0.291,-0.094 0.674,-0.14 1.149,-0.14 0.51,0 0.915,0.046 1.214,0.14 0.299,0.093 0.532,0.204 0.7,0.334 0.167,0.129 0.277,0.268 0.329,0.419 0.054,0.151 0.08,0.283 0.08,0.398 v 0.237 h 2.244 v -0.538 c 0,-0.173 -0.036,-0.402 -0.106,-0.689 -0.071,-0.287 -0.255,-0.574 -0.554,-0.86 -0.3,-0.288 -0.749,-0.536 -1.347,-0.744 -0.598,-0.208 -1.425,-0.311 -2.481,-0.311 -1.056,0 -1.883,0.103 -2.482,0.311 -0.598,0.208 -1.051,0.456 -1.359,0.744 -0.308,0.286 -0.498,0.577 -0.568,0.871 -0.07,0.294 -0.105,0.52 -0.105,0.678 V -9.643 0 0.56 c 0,0.157 0.035,0.383 0.105,0.677 0.07,0.294 0.26,0.585 0.568,0.872 0.308,0.287 0.761,0.535 1.359,0.743 0.599,0.208 1.426,0.312 2.482,0.312 1.056,0 1.883,-0.104 2.481,-0.312 C 0.835,2.644 1.284,2.396 1.584,2.109 1.883,1.822 2.067,1.531 2.138,1.237 2.208,0.943 2.244,0.717 2.244,0.56 V 0 Z"
             style="fill:#ffffff;fill-opacity:1;fill-rule:nonzero;stroke:none"
             id="path50" /></g><path
           d="m 117.938,114.546 h 2.217 V 98.941 h -2.217 z"
           style="fill:#ffffff;fill-opacity:1;fill-rule:nonzero;stroke:none"
           id="path52" /><path
           d="m 123.06,110.176 h 2.217 V 98.941 h -2.217 z m 2.217,2.174 h -2.217 v 2.174 h 2.217 z"
           style="fill:#ffffff;fill-opacity:1;fill-rule:nonzero;stroke:none"
           id="path54" /><g
           id="g56"
           transform="translate(134.1333,108.293)"><path
             d="m 0,0 c -0.308,0.294 -0.902,0.441 -1.782,0.441 -0.44,0 -0.805,-0.04 -1.095,-0.119 -0.29,-0.079 -0.524,-0.182 -0.7,-0.311 -0.176,-0.13 -0.299,-0.27 -0.369,-0.42 -0.071,-0.151 -0.106,-0.298 -0.106,-0.442 V -1.26 c 0,-0.172 0.04,-0.322 0.119,-0.452 0.079,-0.129 0.171,-0.244 0.277,-0.344 0.106,-0.1 0.215,-0.175 0.33,-0.226 0.114,-0.05 0.206,-0.09 0.277,-0.118 0.07,-0.015 0.246,-0.065 0.528,-0.151 0.281,-0.086 0.611,-0.182 0.99,-0.291 0.378,-0.107 0.77,-0.219 1.175,-0.333 C 0.048,-3.29 0.409,-3.391 0.726,-3.477 1.36,-3.663 1.848,-3.979 2.191,-4.424 2.535,-4.868 2.706,-5.363 2.706,-5.908 V -6.92 C 2.706,-7.179 2.649,-7.462 2.535,-7.771 2.42,-8.079 2.195,-8.362 1.861,-8.621 1.527,-8.879 1.069,-9.095 0.489,-9.267 c -0.581,-0.171 -1.338,-0.257 -2.271,-0.257 -0.933,0 -1.689,0.086 -2.27,0.257 -0.581,0.172 -1.039,0.388 -1.373,0.646 -0.334,0.259 -0.559,0.542 -0.673,0.85 -0.114,0.309 -0.172,0.592 -0.172,0.851 v 0.624 h 2.218 c 0,-0.516 0.158,-0.915 0.475,-1.194 0.317,-0.281 0.915,-0.42 1.795,-0.42 0.863,0 1.452,0.132 1.769,0.397 0.317,0.266 0.475,0.671 0.475,1.217 0,0.273 -0.062,0.498 -0.185,0.678 -0.123,0.18 -0.264,0.326 -0.422,0.441 -0.194,0.129 -0.405,0.23 -0.633,0.301 -0.529,0.158 -1.021,0.302 -1.479,0.431 -0.405,0.115 -0.796,0.226 -1.175,0.334 -0.379,0.107 -0.655,0.182 -0.831,0.225 -0.176,0.058 -0.379,0.144 -0.608,0.259 -0.228,0.114 -0.448,0.266 -0.659,0.452 -0.212,0.186 -0.387,0.412 -0.528,0.678 -0.141,0.266 -0.212,0.57 -0.212,0.915 v 1.033 c 0,0.746 0.361,1.366 1.083,1.861 0.721,0.496 1.856,0.744 3.405,0.744 0.792,0 1.47,-0.069 2.033,-0.205 C 0.814,1.714 1.281,1.528 1.65,1.291 2.02,1.055 2.288,0.778 2.455,0.463 2.623,0.146 2.706,-0.19 2.706,-0.549 V -1.065 H 0.462 C 0.462,-0.649 0.308,-0.295 0,0"
             style="fill:#ffffff;fill-opacity:1;fill-rule:nonzero;stroke:none"
             id="path58" /></g><g
           id="g60"
           transform="translate(145.6963,108.293)"><path
             d="m 0,0 c -0.308,0.294 -0.902,0.441 -1.781,0.441 -0.441,0 -0.806,-0.04 -1.096,-0.119 -0.291,-0.079 -0.525,-0.182 -0.7,-0.311 -0.176,-0.13 -0.3,-0.27 -0.37,-0.42 -0.071,-0.151 -0.106,-0.298 -0.106,-0.442 V -1.26 c 0,-0.172 0.04,-0.322 0.119,-0.452 0.08,-0.129 0.172,-0.244 0.277,-0.344 0.106,-0.1 0.216,-0.175 0.33,-0.226 0.115,-0.05 0.207,-0.09 0.278,-0.118 0.07,-0.015 0.246,-0.065 0.528,-0.151 0.282,-0.086 0.612,-0.182 0.99,-0.291 0.379,-0.107 0.769,-0.219 1.175,-0.333 0.405,-0.115 0.765,-0.216 1.083,-0.302 0.632,-0.186 1.121,-0.502 1.464,-0.947 0.343,-0.444 0.515,-0.939 0.515,-1.484 V -6.92 C 2.706,-7.179 2.648,-7.462 2.534,-7.771 2.42,-8.079 2.195,-8.362 1.861,-8.621 1.526,-8.879 1.069,-9.095 0.488,-9.267 c -0.58,-0.171 -1.337,-0.257 -2.269,-0.257 -0.934,0 -1.691,0.086 -2.272,0.257 -0.58,0.172 -1.038,0.388 -1.372,0.646 -0.335,0.259 -0.559,0.542 -0.674,0.85 -0.114,0.309 -0.171,0.592 -0.171,0.851 v 0.624 h 2.217 c 0,-0.516 0.159,-0.915 0.476,-1.194 0.317,-0.281 0.915,-0.42 1.796,-0.42 0.861,0 1.451,0.132 1.768,0.397 0.317,0.266 0.475,0.671 0.475,1.217 0,0.273 -0.062,0.498 -0.185,0.678 -0.123,0.18 -0.263,0.326 -0.422,0.441 -0.194,0.129 -0.405,0.23 -0.633,0.301 -0.529,0.158 -1.022,0.302 -1.479,0.431 -0.405,0.115 -0.797,0.226 -1.175,0.334 -0.379,0.107 -0.656,0.182 -0.832,0.225 -0.176,0.058 -0.379,0.144 -0.607,0.259 -0.229,0.114 -0.449,0.266 -0.66,0.452 -0.211,0.186 -0.387,0.412 -0.528,0.678 -0.141,0.266 -0.211,0.57 -0.211,0.915 v 1.033 c 0,0.746 0.36,1.366 1.083,1.861 0.721,0.496 1.856,0.744 3.406,0.744 0.791,0 1.469,-0.069 2.032,-0.205 C 0.814,1.714 1.28,1.528 1.65,1.291 2.02,1.055 2.288,0.778 2.455,0.463 2.622,0.146 2.706,-0.19 2.706,-0.549 V -1.065 H 0.462 C 0.462,-0.649 0.308,-0.295 0,0"
             style="fill:#ffffff;fill-opacity:1;fill-rule:nonzero;stroke:none"
             id="path62" /></g><g
           id="g64"
           transform="translate(157.7207,101.9327)"><path
             d="m 0,0 v 5.252 0.236 c 0,0.129 -0.026,0.27 -0.079,0.42 -0.053,0.151 -0.163,0.29 -0.33,0.42 -0.167,0.129 -0.401,0.24 -0.699,0.333 -0.3,0.094 -0.704,0.141 -1.215,0.141 -0.475,0 -0.858,-0.047 -1.148,-0.141 C -3.762,6.568 -3.986,6.453 -4.145,6.317 -4.303,6.181 -4.404,6.033 -4.448,5.876 -4.492,5.718 -4.514,5.581 -4.514,5.467 V 5.252 0 -0.216 c 0,-0.115 0.022,-0.251 0.066,-0.409 0.044,-0.157 0.145,-0.305 0.303,-0.44 0.159,-0.137 0.383,-0.252 0.674,-0.345 0.29,-0.094 0.673,-0.14 1.148,-0.14 0.511,0 0.915,0.046 1.215,0.14 0.298,0.093 0.532,0.204 0.699,0.334 0.167,0.129 0.277,0.268 0.33,0.419 C -0.026,-0.506 0,-0.366 0,-0.237 Z M 2.244,-0.216 V -0.56 C 2.244,-0.732 2.209,-0.962 2.139,-1.249 2.068,-1.536 1.883,-1.823 1.584,-2.109 1.285,-2.396 0.836,-2.645 0.238,-2.853 -0.36,-3.061 -1.187,-3.164 -2.243,-3.164 c -1.057,0 -1.884,0.103 -2.483,0.311 -0.597,0.208 -1.046,0.457 -1.345,0.744 -0.3,0.286 -0.485,0.577 -0.555,0.871 -0.07,0.294 -0.105,0.52 -0.105,0.678 v 0.237 6.135 c 0,0.157 0.035,0.383 0.105,0.677 0.07,0.294 0.255,0.584 0.555,0.872 0.299,0.286 0.748,0.535 1.345,0.743 0.599,0.208 1.426,0.312 2.483,0.312 1.056,0 1.883,-0.104 2.481,-0.312 C 0.836,7.896 1.285,7.647 1.584,7.361 1.883,7.073 2.068,6.787 2.139,6.5 2.209,6.213 2.244,5.983 2.244,5.812 Z"
             style="fill:#ffffff;fill-opacity:1;fill-rule:nonzero;stroke:none"
             id="path66" /></g><g
           id="g68"
           transform="translate(171.5537,98.9405)"><path
             d="m 0,0 h -2.244 v 8.266 0.193 c 0,0.129 -0.022,0.27 -0.066,0.42 -0.044,0.15 -0.145,0.294 -0.303,0.431 -0.158,0.135 -0.383,0.251 -0.673,0.343 -0.291,0.094 -0.674,0.141 -1.149,0.141 -0.493,0 -0.893,-0.047 -1.201,-0.141 C -5.944,9.561 -6.182,9.449 -6.349,9.32 -6.517,9.19 -6.626,9.051 -6.679,8.9 -6.731,8.75 -6.758,8.617 -6.758,8.502 V 8.266 0 h -2.244 v 8.416 0.388 c 0,0.172 0.035,0.401 0.106,0.688 0.07,0.287 0.259,0.573 0.567,0.862 0.308,0.286 0.762,0.534 1.36,0.742 0.598,0.208 1.425,0.312 2.482,0.312 1.055,0 1.883,-0.104 2.481,-0.312 0.598,-0.208 1.047,-0.456 1.346,-0.742 0.299,-0.289 0.484,-0.579 0.555,-0.873 C -0.035,9.188 0,8.961 0,8.804 V 8.588 Z"
             style="fill:#ffffff;fill-opacity:1;fill-rule:nonzero;stroke:none"
             id="path70" /></g></g></g><g
       id="g72"><g
         id="g74"><g
           id="g80"><g
             id="g82"><path
               d="m 117.862,201.046 c -6.895,-6.394 -10.406,-15.091 -10.45,-23.825 v 0 c -0.039,-8.013 2.841,-16.057 8.706,-22.383 v 0 c 12.258,-13.22 32.987,-14.002 46.206,-1.744 v 0 c 2.3,2.132 4.274,4.568 5.867,7.24 v 0 l -8.302,4.948 c -1.12,-1.88 -2.511,-3.596 -4.135,-5.102 v 0 c -4.512,-4.183 -10.382,-6.359 -16.529,-6.127 v 0 c -6.148,0.232 -11.838,2.845 -16.021,7.356 v 0 c -8.635,9.313 -8.083,23.915 1.229,32.55 v 0 c 4.511,4.183 10.382,6.359 16.529,6.127 v 0 c 6.148,-0.233 11.838,-2.845 16.02,-7.356 v 0 c 1.313,-1.415 2.441,-2.982 3.354,-4.658 v 0 l 8.486,4.623 c -1.297,2.38 -2.895,4.603 -4.753,6.605 v 0 c -5.938,6.405 -14.015,10.114 -22.742,10.443 v 0 c -0.422,0.016 -0.843,0.024 -1.264,0.024 v 0 c -8.265,0 -16.106,-3.071 -22.201,-8.721"
               style="fill:url(#linearGradient102);stroke:none"
               id="path104" /></g></g></g></g><g
       id="g106"><g
         id="g108"><g
           id="g114"><g
             id="g116"><path
               d="m 117.862,201.046 c -6.895,-6.394 -10.406,-15.091 -10.45,-23.825 v 0 c -0.039,-8.013 2.841,-16.057 8.706,-22.383 v 0 c 12.258,-13.22 32.987,-14.002 46.206,-1.744 v 0 c 2.3,2.132 4.274,4.568 5.867,7.24 v 0 l -8.302,4.948 c -1.12,-1.88 -2.511,-3.596 -4.135,-5.102 v 0 c -4.512,-4.183 -10.382,-6.359 -16.529,-6.127 v 0 c -6.148,0.232 -11.838,2.845 -16.021,7.356 v 0 c -8.635,9.313 -8.083,23.915 1.229,32.55 v 0 c 4.511,4.183 10.382,6.359 16.529,6.127 v 0 c 6.148,-0.233 11.838,-2.845 16.02,-7.356 v 0 c 1.313,-1.415 2.441,-2.982 3.354,-4.658 v 0 l 8.486,4.623 c -1.297,2.38 -2.895,4.603 -4.753,6.605 v 0 c -5.938,6.405 -14.015,10.114 -22.742,10.443 v 0 c -0.422,0.016 -0.843,0.024 -1.264,0.024 v 0 c -8.265,0 -16.106,-3.071 -22.201,-8.721"
               style="fill:url(#linearGradient136);stroke:none"
               id="path138" /></g></g></g></g><g
       id="g140"><g
         id="g142"
         clip-path="url(#clipPath146)"><g
           id="g148"><g
             id="g150" /><g
             id="g192"><g
               clip-path="url(#clipPath154)"
               opacity="0.699997"
               id="g190"><g
                 id="g188"><g
                   id="g186"><g
                     id="g184"><g
                       id="g182"><path
                         d="m 107.412,177.221 c 0.043,8.734 3.555,17.431 10.45,23.824 6.404,5.938 14.738,9.027 23.465,8.698 8.727,-0.33 16.804,-4.038 22.742,-10.442 1.857,-2.003 3.457,-4.226 4.753,-6.606 l -8.486,-4.623 c -0.913,1.676 -2.041,3.243 -3.353,4.658 -4.183,4.511 -9.873,7.123 -16.021,7.356 -6.147,0.232 -12.018,-1.944 -16.529,-6.127 -9.313,-8.636 -9.864,-23.237 -1.229,-32.55 4.183,-4.511 9.873,-7.123 16.02,-7.356 6.148,-0.232 12.019,1.944 16.53,6.127 1.624,1.506 3.015,3.222 4.136,5.102 l 8.301,-4.948 c -1.593,-2.672 -3.567,-5.108 -5.867,-7.24 -13.22,-12.259 -33.948,-11.476 -46.206,1.744 -5.865,6.326 -8.745,14.37 -8.706,22.383"
                         style="fill:url(#linearGradient178);stroke:none"
                         id="path180" /></g></g></g></g></g></g></g></g></g><g
       id="g194"><g
         id="g196"><g
           id="g202"><g
             id="g204"><path
               d="m 140.496,172.742 c 0,-2.235 1.812,-4.046 4.046,-4.046 v 0 c 2.234,0 4.045,1.811 4.045,4.046 v 0 c 0,2.233 -1.811,4.045 -4.045,4.045 v 0 c -2.234,0 -4.046,-1.812 -4.046,-4.045"
               style="fill:url(#linearGradient224);stroke:none"
               id="path226" /></g></g></g></g><g
       id="g228"><g
         id="g230"><g
           id="g236"><g
             id="g238"><path
               d="m 150.412,172.742 c 0,-2.235 1.812,-4.046 4.046,-4.046 v 0 c 2.235,0 4.045,1.811 4.045,4.046 v 0 c 0,2.233 -1.81,4.045 -4.045,4.045 v 0 c -2.234,0 -4.046,-1.812 -4.046,-4.045"
               style="fill:url(#linearGradient258);stroke:none"
               id="path260" /></g></g></g></g><g
       id="g262"><g
         id="g264"><g
           id="g270"><g
             id="g272"><path
               d="m 160.33,172.742 c 0,-2.235 1.81,-4.046 4.045,-4.046 v 0 c 2.234,0 4.046,1.811 4.046,4.046 v 0 c 0,2.233 -1.812,4.045 -4.046,4.045 v 0 c -2.235,0 -4.045,-1.812 -4.045,-4.045"
               style="fill:url(#linearGradient292);stroke:none"
               id="path294" /></g></g></g></g></g></svg>
